apt-transport-https/xenial-security 1.2.29ubuntu0.1 amd64 [upgradable from: 1.2.24]
binutils/xenial-updates 2.26.1-1ubuntu1~16.04.7 amd64 [upgradable from: 2.26.1-1ubuntu1~16.04.6]
binutils-dev/xenial-updates 2.26.1-1ubuntu1~16.04.7 amd64 [upgradable from: 2.26.1-1ubuntu1~16.04.6]
ca-certificates/xenial-updates 20170717~16.04.2 all [upgradable from: 20170717~16.04.1]
curl/xenial-security,xenial-updates 7.47.0-1ubuntu2.11 amd64 [upgradable from: 7.47.0-1ubuntu2.6]
distro-info-data/xenial-security,xenial-updates 0.28ubuntu0.9 all [upgradable from: 0.28ubuntu0.7]
dpkg-dev/xenial-updates 1.18.4ubuntu1.5 all [upgradable from: 1.18.4ubuntu1.3]
gir1.2-gdkpixbuf-2.0/xenial-updates 2.32.2-1ubuntu1.5 amd64 [upgradable from: 2.32.2-1ubuntu1.4]
git/xenial-security,xenial-updates 1:2.7.4-0ubuntu1.6 amd64 [upgradable from: 1:2.7.4-0ubuntu1.3]
git-core/xenial-security,xenial-updates 1:2.7.4-0ubuntu1.6 all [upgradable from: 1:2.7.4-0ubuntu1.3]
git-man/xenial-security,xenial-updates 1:2.7.4-0ubuntu1.6 all [upgradable from: 1:2.7.4-0ubuntu1.3]
hdf5-helpers/xenial-security,xenial-updates 1.8.16+docs-4ubuntu1.1 amd64 [upgradable from: 1.8.16+docs-4ubuntu1]
hicolor-icon-theme/xenial-updates 0.15-0ubuntu1.1 all [upgradable from: 0.15-0ubuntu1]
icu-devtools/xenial-security,xenial-updates 55.1-7ubuntu0.4 amd64 [upgradable from: 55.1-7ubuntu0.3]
libarchive13/xenial-security 3.1.2-11ubuntu0.16.04.5 amd64 [upgradable from: 3.1.2-11ubuntu0.16.04.3]
libavahi-client3/xenial-updates 0.6.32~rc+dfsg-1ubuntu2.2 amd64 [upgradable from: 0.6.32~rc+dfsg-1ubuntu2]
libavahi-common-data/xenial-updates 0.6.32~rc+dfsg-1ubuntu2.2 amd64 [upgradable from: 0.6.32~rc+dfsg-1ubuntu2]
libavahi-common3/xenial-updates 0.6.32~rc+dfsg-1ubuntu2.2 amd64 [upgradable from: 0.6.32~rc+dfsg-1ubuntu2]
libavahi-glib1/xenial-updates 0.6.32~rc+dfsg-1ubuntu2.2 amd64 [upgradable from: 0.6.32~rc+dfsg-1ubuntu2]
libavcodec-dev/xenial-security,xenial-updates 7:2.8.15-0ubuntu0.16.04.1 amd64 [upgradable from: 7:2.8.11-0ubuntu0.16.04.1]
libavcodec-ffmpeg56/xenial-security,xenial-updates 7:2.8.15-0ubuntu0.16.04.1 amd64 [upgradable from: 7:2.8.11-0ubuntu0.16.04.1]
libavformat-dev/xenial-security,xenial-updates 7:2.8.15-0ubuntu0.16.04.1 amd64 [upgradable from: 7:2.8.11-0ubuntu0.16.04.1]
libavformat-ffmpeg56/xenial-security,xenial-updates 7:2.8.15-0ubuntu0.16.04.1 amd64 [upgradable from: 7:2.8.11-0ubuntu0.16.04.1]
libavutil-dev/xenial-security,xenial-updates 7:2.8.15-0ubuntu0.16.04.1 amd64 [upgradable from: 7:2.8.11-0ubuntu0.16.04.1]
libavutil-ffmpeg54/xenial-security,xenial-updates 7:2.8.15-0ubuntu0.16.04.1 amd64 [upgradable from: 7:2.8.11-0ubuntu0.16.04.1]
libcaca-dev/xenial-security 0.99.beta19-2ubuntu0.16.04.1 amd64 [upgradable from: 0.99.beta19-2build2~gcc5.2]
libcaca0/xenial-security 0.99.beta19-2ubuntu0.16.04.1 amd64 [upgradable from: 0.99.beta19-2build2~gcc5.2]
libcapnp-0.5.3/xenial-security,xenial-updates 0.5.3-2ubuntu1.1 amd64 [upgradable from: 0.5.3-2ubuntu1]
libcups2/xenial-security,xenial-updates 2.1.3-4ubuntu0.6 amd64 [upgradable from: 2.1.3-4ubuntu0.3]
libcurl3/xenial-security,xenial-updates 7.47.0-1ubuntu2.11 amd64 [upgradable from: 7.47.0-1ubuntu2.6]
libcurl3-gnutls/xenial-security,xenial-updates 7.47.0-1ubuntu2.11 amd64 [upgradable from: 7.47.0-1ubuntu2.6]
libcurl4-openssl-dev/xenial-security,xenial-updates 7.47.0-1ubuntu2.11 amd64 [upgradable from: 7.47.0-1ubuntu2.6]
libdpkg-perl/xenial-updates 1.18.4ubuntu1.5 all [upgradable from: 1.18.4ubuntu1.3]
libdrm-amdgpu1/xenial-updates 2.4.91-2~16.04.1 amd64 [upgradable from: 2.4.83-1~16.04.1]
libdrm-common/xenial-updates 2.4.91-2~16.04.1 all [upgradable from: 2.4.83-1~16.04.1]
libdrm-dev/xenial-updates 2.4.91-2~16.04.1 amd64 [upgradable from: 2.4.83-1~16.04.1]
libdrm-intel1/xenial-updates 2.4.91-2~16.04.1 amd64 [upgradable from: 2.4.83-1~16.04.1]
libdrm-nouveau2/xenial-updates 2.4.91-2~16.04.1 amd64 [upgradable from: 2.4.83-1~16.04.1]
libdrm-radeon1/xenial-updates 2.4.91-2~16.04.1 amd64 [upgradable from: 2.4.83-1~16.04.1]
libdrm2/xenial-updates 2.4.91-2~16.04.1 amd64 [upgradable from: 2.4.83-1~16.04.1]
libdw-dev/xenial-security,xenial-updates 0.165-3ubuntu1.1 amd64 [upgradable from: 0.165-3ubuntu1]
libdw1/xenial-security,xenial-updates 0.165-3ubuntu1.1 amd64 [upgradable from: 0.165-3ubuntu1]
libegl1-mesa/xenial-updates 18.0.5-0ubuntu0~16.04.1 amd64 [upgradable from: 17.2.4-0ubuntu1~16.04.4]
libegl1-mesa-dev/xenial-updates 18.0.5-0ubuntu0~16.04.1 amd64 [upgradable from: 17.2.4-0ubuntu1~16.04.4]
libelf-dev/xenial-security,xenial-updates 0.165-3ubuntu1.1 amd64 [upgradable from: 0.165-3ubuntu1]
libelf1/xenial-security,xenial-updates 0.165-3ubuntu1.1 amd64 [upgradable from: 0.165-3ubuntu1]
libfreexl1/xenial-security,xenial-updates 1.0.2-1ubuntu0.1 amd64 [upgradable from: 1.0.2-1]
libgbm1/xenial-updates 18.0.5-0ubuntu0~16.04.1 amd64 [upgradable from: 17.2.4-0ubuntu1~16.04.4]
libgd3/xenial-security,xenial-updates 2.1.1-4ubuntu0.16.04.10 amd64 [upgradable from: 2.1.1-4ubuntu0.16.04.8]
libgdk-pixbuf2.0-0/xenial-updates 2.32.2-1ubuntu1.5 amd64 [upgradable from: 2.32.2-1ubuntu1.4]
libgdk-pixbuf2.0-common/xenial-updates 2.32.2-1ubuntu1.5 all [upgradable from: 2.32.2-1ubuntu1.4]
libgdk-pixbuf2.0-dev/xenial-updates 2.32.2-1ubuntu1.5 amd64 [upgradable from: 2.32.2-1ubuntu1.4]
libgl1-mesa-dev/xenial-updates 18.0.5-0ubuntu0~16.04.1 amd64 [upgradable from: 17.2.4-0ubuntu1~16.04.4]
libgl1-mesa-dri/xenial-updates 18.0.5-0ubuntu0~16.04.1 amd64 [upgradable from: 17.2.4-0ubuntu1~16.04.4]
libgl1-mesa-glx/xenial-updates 18.0.5-0ubuntu0~16.04.1 amd64 [upgradable from: 17.2.4-0ubuntu1~16.04.4]
libglapi-mesa/xenial-updates 18.0.5-0ubuntu0~16.04.1 amd64 [upgradable from: 17.2.4-0ubuntu1~16.04.4]
libgles2-mesa/xenial-updates 18.0.5-0ubuntu0~16.04.1 amd64 [upgradable from: 17.2.4-0ubuntu1~16.04.4]
libgles2-mesa-dev/xenial-updates 18.0.5-0ubuntu0~16.04.1 amd64 [upgradable from: 17.2.4-0ubuntu1~16.04.4]
libglib2.0-0/xenial-security,xenial-updates 2.48.2-0ubuntu4.1 amd64 [upgradable from: 2.48.2-0ubuntu1]
libglib2.0-bin/xenial-security,xenial-updates 2.48.2-0ubuntu4.1 amd64 [upgradable from: 2.48.2-0ubuntu1]
libglib2.0-data/xenial-security,xenial-updates 2.48.2-0ubuntu4.1 all [upgradable from: 2.48.2-0ubuntu1]
libglib2.0-dev/xenial-security,xenial-updates 2.48.2-0ubuntu4.1 amd64 [upgradable from: 2.48.2-0ubuntu1]
libgssapi-krb5-2/xenial-security 1.13.2+dfsg-5ubuntu2.1 amd64 [upgradable from: 1.13.2+dfsg-5ubuntu2]
libhdf5-10/xenial-security,xenial-updates 1.8.16+docs-4ubuntu1.1 amd64 [upgradable from: 1.8.16+docs-4ubuntu1]
libhdf5-cpp-11/xenial-security,xenial-updates 1.8.16+docs-4ubuntu1.1 amd64 [upgradable from: 1.8.16+docs-4ubuntu1]
libhdf5-dev/xenial-security,xenial-updates 1.8.16+docs-4ubuntu1.1 amd64 [upgradable from: 1.8.16+docs-4ubuntu1]
libhdf5-mpi-dev/xenial-security,xenial-updates 1.8.16+docs-4ubuntu1.1 amd64 [upgradable from: 1.8.16+docs-4ubuntu1]
libhdf5-openmpi-10/xenial-security,xenial-updates 1.8.16+docs-4ubuntu1.1 amd64 [upgradable from: 1.8.16+docs-4ubuntu1]
libhdf5-openmpi-dev/xenial-security,xenial-updates 1.8.16+docs-4ubuntu1.1 amd64 [upgradable from: 1.8.16+docs-4ubuntu1]
libicu-dev/xenial-security,xenial-updates 55.1-7ubuntu0.4 amd64 [upgradable from: 55.1-7ubuntu0.3]
libicu55/xenial-security,xenial-updates 55.1-7ubuntu0.4 amd64 [upgradable from: 55.1-7ubuntu0.3]
libjasper-dev/xenial-security,xenial-updates 1.900.1-debian1-2.4ubuntu1.2 amd64 [upgradable from: 1.900.1-debian1-2.4ubuntu1.1]
libjasper1/xenial-security,xenial-updates 1.900.1-debian1-2.4ubuntu1.2 amd64 [upgradable from: 1.900.1-debian1-2.4ubuntu1.1]
libjpeg-turbo8/xenial-security,xenial-updates 1.4.2-0ubuntu3.1 amd64 [upgradable from: 1.4.2-0ubuntu3]
libjpeg-turbo8-dev/xenial-security,xenial-updates 1.4.2-0ubuntu3.1 amd64 [upgradable from: 1.4.2-0ubuntu3]
libjs-sphinxdoc/xenial-updates 1.3.6-2ubuntu1.2 all [upgradable from: 1.3.6-2ubuntu1.1]
libk5crypto3/xenial-security 1.13.2+dfsg-5ubuntu2.1 amd64 [upgradable from: 1.13.2+dfsg-5ubuntu2]
libkrb5-3/xenial-security 1.13.2+dfsg-5ubuntu2.1 amd64 [upgradable from: 1.13.2+dfsg-5ubuntu2]
libkrb5support0/xenial-security 1.13.2+dfsg-5ubuntu2.1 amd64 [upgradable from: 1.13.2+dfsg-5ubuntu2]
liblcms2-2/xenial-security,xenial-updates 2.6-3ubuntu2.1 amd64 [upgradable from: 2.6-3ubuntu2]
libldap-2.4-2/xenial-updates 2.4.42+dfsg-2ubuntu3.4 amd64 [upgradable from: 2.4.42+dfsg-2ubuntu3.2]
libldap2-dev/xenial-updates 2.4.42+dfsg-2ubuntu3.4 amd64 [upgradable from: 2.4.42+dfsg-2ubuntu3.2]
libmysqlclient-dev/xenial-security 5.7.25-0ubuntu0.16.04.2 amd64 [upgradable from: 5.7.21-0ubuntu0.16.04.1]
libmysqlclient20/xenial-security 5.7.25-0ubuntu0.16.04.2 amd64 [upgradable from: 5.7.21-0ubuntu0.16.04.1]
libnuma-dev/xenial-security,xenial-updates 2.0.11-1ubuntu1.1 amd64 [upgradable from: 2.0.11-1ubuntu1]
libnuma1/xenial-security,xenial-updates 2.0.11-1ubuntu1.1 amd64 [upgradable from: 2.0.11-1ubuntu1]
libopenjp2-7/xenial-security,xenial-updates 2.1.2-1.1+deb9u2build0.1 amd64 [upgradable from: 2.1.0-2.1ubuntu0.1]
libperl5.22/xenial-security,xenial-updates 5.22.1-9ubuntu0.6 amd64 [upgradable from: 5.22.1-9ubuntu0.2]
libpng12-0/xenial-security,xenial-updates 1.2.54-1ubuntu1.1 amd64 [upgradable from: 1.2.54-1ubuntu1]
libpng12-dev/xenial-security,xenial-updates 1.2.54-1ubuntu1.1 amd64 [upgradable from: 1.2.54-1ubuntu1]
libpoco-dev/xenial-security,xenial-updates 1.3.6p1-5.1ubuntu0.1 amd64 [upgradable from: 1.3.6p1-5.1build1]
libpococrypto9v5/xenial-security,xenial-updates 1.3.6p1-5.1ubuntu0.1 amd64 [upgradable from: 1.3.6p1-5.1build1]
libpocodata9v5/xenial-security,xenial-updates 1.3.6p1-5.1ubuntu0.1 amd64 [upgradable from: 1.3.6p1-5.1build1]
libpocofoundation9v5/xenial-security,xenial-updates 1.3.6p1-5.1ubuntu0.1 amd64 [upgradable from: 1.3.6p1-5.1build1]
libpocomysql9v5/xenial-security,xenial-updates 1.3.6p1-5.1ubuntu0.1 amd64 [upgradable from: 1.3.6p1-5.1build1]
libpoconet9v5/xenial-security,xenial-updates 1.3.6p1-5.1ubuntu0.1 amd64 [upgradable from: 1.3.6p1-5.1build1]
libpoconetssl9v5/xenial-security,xenial-updates 1.3.6p1-5.1ubuntu0.1 amd64 [upgradable from: 1.3.6p1-5.1build1]
libpocoodbc9v5/xenial-security,xenial-updates 1.3.6p1-5.1ubuntu0.1 amd64 [upgradable from: 1.3.6p1-5.1build1]
libpocosqlite9v5/xenial-security,xenial-updates 1.3.6p1-5.1ubuntu0.1 amd64 [upgradable from: 1.3.6p1-5.1build1]
libpocoutil9v5/xenial-security,xenial-updates 1.3.6p1-5.1ubuntu0.1 amd64 [upgradable from: 1.3.6p1-5.1build1]
libpocoxml9v5/xenial-security,xenial-updates 1.3.6p1-5.1ubuntu0.1 amd64 [upgradable from: 1.3.6p1-5.1build1]
libpocozip9v5/xenial-security,xenial-updates 1.3.6p1-5.1ubuntu0.1 amd64 [upgradable from: 1.3.6p1-5.1build1]
libpoppler58/xenial-security 0.41.0-0ubuntu1.11 amd64 [upgradable from: 0.41.0-0ubuntu1.6]
libpulse-dev/xenial-updates 1:8.0-0ubuntu3.10 amd64 [upgradable from: 1:8.0-0ubuntu3.7]
libpulse-mainloop-glib0/xenial-updates 1:8.0-0ubuntu3.10 amd64 [upgradable from: 1:8.0-0ubuntu3.7]
libpulse0/xenial-updates 1:8.0-0ubuntu3.10 amd64 [upgradable from: 1:8.0-0ubuntu3.7]
libpython-dev/xenial-updates 2.7.12-1~16.04 amd64 [upgradable from: 2.7.11-1]
libpython-stdlib/xenial-updates 2.7.12-1~16.04 amd64 [upgradable from: 2.7.11-1]
libpython2.7/xenial-security,xenial-updates 2.7.12-1ubuntu0~16.04.4 amd64 [upgradable from: 2.7.12-1ubuntu0~16.04.3]
libpython2.7-dev/xenial-security,xenial-updates 2.7.12-1ubuntu0~16.04.4 amd64 [upgradable from: 2.7.12-1ubuntu0~16.04.3]
libpython2.7-minimal/xenial-security,xenial-updates 2.7.12-1ubuntu0~16.04.4 amd64 [upgradable from: 2.7.12-1ubuntu0~16.04.3]
libpython2.7-stdlib/xenial-security,xenial-updates 2.7.12-1ubuntu0~16.04.4 amd64 [upgradable from: 2.7.12-1ubuntu0~16.04.3]
libpython3.5/xenial-security,xenial-updates 3.5.2-2ubuntu0~16.04.5 amd64 [upgradable from: 3.5.2-2ubuntu0~16.04.4]
libpython3.5-minimal/xenial-security,xenial-updates 3.5.2-2ubuntu0~16.04.5 amd64 [upgradable from: 3.5.2-2ubuntu0~16.04.4]
libpython3.5-stdlib/xenial-security,xenial-updates 3.5.2-2ubuntu0~16.04.5 amd64 [upgradable from: 3.5.2-2ubuntu0~16.04.4]
libqt5clucene5/xenial-updates 5.5.1-3ubuntu0.1 amd64 [upgradable from: 5.5.1-3build1]
libqt5designer5/xenial-updates 5.5.1-3ubuntu0.1 amd64 [upgradable from: 5.5.1-3build1]
libqt5designercomponents5/xenial-updates 5.5.1-3ubuntu0.1 amd64 [upgradable from: 5.5.1-3build1]
libqt5help5/xenial-updates 5.5.1-3ubuntu0.1 amd64 [upgradable from: 5.5.1-3build1]
libraw15/xenial-security,xenial-updates 0.17.1-1ubuntu0.4 amd64 [upgradable from: 0.17.1-1ubuntu0.1]
libsasl2-2/xenial-updates 2.1.26.dfsg1-14ubuntu0.1 amd64 [upgradable from: 2.1.26.dfsg1-14build1]
libsasl2-modules-db/xenial-updates 2.1.26.dfsg1-14ubuntu0.1 amd64 [upgradable from: 2.1.26.dfsg1-14build1]
libsdl-image1.2/xenial-security,xenial-updates 1.2.12-5+deb9u1build0.16.04.1 amd64 [upgradable from: 1.2.12-5build2]
libsdl-image1.2-dev/xenial-security,xenial-updates 1.2.12-5+deb9u1build0.16.04.1 amd64 [upgradable from: 1.2.12-5build2]
libslang2/xenial-updates 2.3.0-2ubuntu1.1 amd64 [upgradable from: 2.3.0-2ubuntu1]
libslang2-dev/xenial-updates 2.3.0-2ubuntu1.1 amd64 [upgradable from: 2.3.0-2ubuntu1]
libsoup-gnome2.4-1/xenial-security,xenial-updates 2.52.2-1ubuntu0.3 amd64 [upgradable from: 2.52.2-1ubuntu0.2]
libsoup2.4-1/xenial-security,xenial-updates 2.52.2-1ubuntu0.3 amd64 [upgradable from: 2.52.2-1ubuntu0.2]
libssh-gcrypt-4/xenial-security,xenial-updates 0.6.3-4.3ubuntu0.2 amd64 [upgradable from: 0.6.3-4.3]
libssl-dev/xenial-security,xenial-updates 1.0.2g-1ubuntu4.14 amd64 [upgradable from: 1.0.2g-1ubuntu4.10]
libssl1.0.0/xenial-security,xenial-updates 1.0.2g-1ubuntu4.14 amd64 [upgradable from: 1.0.2g-1ubuntu4.10]
libswresample-dev/xenial-security,xenial-updates 7:2.8.15-0ubuntu0.16.04.1 amd64 [upgradable from: 7:2.8.11-0ubuntu0.16.04.1]
libswresample-ffmpeg1/xenial-security,xenial-updates 7:2.8.15-0ubuntu0.16.04.1 amd64 [upgradable from: 7:2.8.11-0ubuntu0.16.04.1]
libswscale-dev/xenial-security,xenial-updates 7:2.8.15-0ubuntu0.16.04.1 amd64 [upgradable from: 7:2.8.11-0ubuntu0.16.04.1]
libswscale-ffmpeg3/xenial-security,xenial-updates 7:2.8.15-0ubuntu0.16.04.1 amd64 [upgradable from: 7:2.8.11-0ubuntu0.16.04.1]
libtiff5/xenial-security 4.0.6-1ubuntu0.5 amd64 [upgradable from: 4.0.6-1ubuntu0.2]
libtiff5-dev/xenial-security 4.0.6-1ubuntu0.5 amd64 [upgradable from: 4.0.6-1ubuntu0.2]
libtiffxx5/xenial-security 4.0.6-1ubuntu0.5 amd64 [upgradable from: 4.0.6-1ubuntu0.2]
libudev-dev/xenial-security 229-4ubuntu21.15 amd64 [upgradable from: 229-4ubuntu21]
libudev1/xenial-security 229-4ubuntu21.15 amd64 [upgradable from: 229-4ubuntu21]
libuuid1/xenial-updates 2.27.1-6ubuntu3.6 amd64 [upgradable from: 2.27.1-6ubuntu3.3]
libvorbis0a/xenial-security,xenial-updates 1.3.5-3ubuntu0.2 amd64 [upgradable from: 1.3.5-3]
libvorbisenc2/xenial-security,xenial-updates 1.3.5-3ubuntu0.2 amd64 [upgradable from: 1.3.5-3]
libvorbisfile3/xenial-security,xenial-updates 1.3.5-3ubuntu0.2 amd64 [upgradable from: 1.3.5-3]
libwavpack1/xenial-security,xenial-updates 4.75.2-2ubuntu0.2 amd64 [upgradable from: 4.75.2-2]
libwayland-bin/xenial-security,xenial-updates 1.12.0-1~ubuntu16.04.3 amd64 [upgradable from: 1.12.0-1~ubuntu16.04.2]
libwayland-client0/xenial-security,xenial-updates 1.12.0-1~ubuntu16.04.3 amd64 [upgradable from: 1.12.0-1~ubuntu16.04.2]
libwayland-cursor0/xenial-security,xenial-updates 1.12.0-1~ubuntu16.04.3 amd64 [upgradable from: 1.12.0-1~ubuntu16.04.2]
libwayland-dev/xenial-security,xenial-updates 1.12.0-1~ubuntu16.04.3 amd64 [upgradable from: 1.12.0-1~ubuntu16.04.2]
libwayland-egl1-mesa/xenial-updates 18.0.5-0ubuntu0~16.04.1 amd64 [upgradable from: 17.2.4-0ubuntu1~16.04.4]
libwayland-server0/xenial-security,xenial-updates 1.12.0-1~ubuntu16.04.3 amd64 [upgradable from: 1.12.0-1~ubuntu16.04.2]
libx11-6/xenial-security,xenial-updates 2:1.6.3-1ubuntu2.1 amd64 [upgradable from: 2:1.6.3-1ubuntu2]
libx11-data/xenial-security,xenial-updates 2:1.6.3-1ubuntu2.1 all [upgradable from: 2:1.6.3-1ubuntu2]
libx11-dev/xenial-security,xenial-updates 2:1.6.3-1ubuntu2.1 amd64 [upgradable from: 2:1.6.3-1ubuntu2]
libx11-xcb-dev/xenial-security,xenial-updates 2:1.6.3-1ubuntu2.1 amd64 [upgradable from: 2:1.6.3-1ubuntu2]
libx11-xcb1/xenial-security,xenial-updates 2:1.6.3-1ubuntu2.1 amd64 [upgradable from: 2:1.6.3-1ubuntu2]
libxcursor-dev/xenial-security,xenial-updates 1:1.1.14-1ubuntu0.16.04.2 amd64 [upgradable from: 1:1.1.14-1ubuntu0.16.04.1]
libxcursor1/xenial-security,xenial-updates 1:1.1.14-1ubuntu0.16.04.2 amd64 [upgradable from: 1:1.1.14-1ubuntu0.16.04.1]
libxkbcommon-dev/xenial-security,xenial-updates 0.5.0-1ubuntu2.1 amd64 [upgradable from: 0.5.0-1ubuntu2]
libxkbcommon-x11-0/xenial-security,xenial-updates 0.5.0-1ubuntu2.1 amd64 [upgradable from: 0.5.0-1ubuntu2]
libxkbcommon0/xenial-security,xenial-updates 0.5.0-1ubuntu2.1 amd64 [upgradable from: 0.5.0-1ubuntu2]
libxml2/xenial-security,xenial-updates 2.9.3+dfsg1-1ubuntu0.6 amd64 [upgradable from: 2.9.3+dfsg1-1ubuntu0.5]
libxml2-dev/xenial-security,xenial-updates 2.9.3+dfsg1-1ubuntu0.6 amd64 [upgradable from: 2.9.3+dfsg1-1ubuntu0.5]
libxml2-utils/xenial-security,xenial-updates 2.9.3+dfsg1-1ubuntu0.6 amd64 [upgradable from: 2.9.3+dfsg1-1ubuntu0.5]
libyaml-cpp-dev/xenial-updates 0.5.2-4ubuntu1~16.04.4 amd64 [upgradable from: 0.5.2-3]
libyaml-cpp0.5v5/xenial-updates 0.5.2-4ubuntu1~16.04.4 amd64 [upgradable from: 0.5.2-3]
libzzip-0-13/xenial-security,xenial-updates 0.13.62-3ubuntu0.16.04.2 amd64 [upgradable from: 0.13.62-3ubuntu0.16.04.1]
linux-libc-dev/xenial-security,xenial-updates 4.4.0-141.167 amd64 [upgradable from: 4.4.0-112.135]
mesa-common-dev/xenial-updates 18.0.5-0ubuntu0~16.04.1 amd64 [upgradable from: 17.2.4-0ubuntu1~16.04.4]
mysql-common/xenial-security 5.7.25-0ubuntu0.16.04.2 all [upgradable from: 5.7.21-0ubuntu0.16.04.1]
openssh-client/xenial-security,xenial-updates 1:7.2p2-4ubuntu2.6 amd64 [upgradable from: 1:7.2p2-4ubuntu2.4]
openssh-server/xenial-security,xenial-updates 1:7.2p2-4ubuntu2.6 amd64 [upgradable from: 1:7.2p2-4ubuntu2.4]
openssh-sftp-server/xenial-security,xenial-updates 1:7.2p2-4ubuntu2.6 amd64 [upgradable from: 1:7.2p2-4ubuntu2.4]
openssl/xenial-security,xenial-updates 1.0.2g-1ubuntu4.14 amd64 [upgradable from: 1.0.2g-1ubuntu4.10]
pal-erbium-amcl/xenial 1.13.1-3 amd64 [upgradable from: 1.13.1-0]
pal-erbium-backward-ros/xenial 0.1.7-2 amd64 [upgradable from: 0.1.6-0]
pal-erbium-base-local-planner/xenial 1.13.1-3 amd64 [upgradable from: 1.13.1-0]
pal-erbium-bpcg/xenial 0.0.2-3 amd64 [upgradable from: 0.0.2-0]
pal-erbium-camera-calibration-files/xenial 0.0.2-3 amd64 [upgradable from: 0.0.2-0]
pal-erbium-carrot-planner/xenial 1.13.1-3 amd64 [upgradable from: 1.13.1-0]
pal-erbium-clear-costmap-recovery/xenial 1.13.1-3 amd64 [upgradable from: 1.13.1-0]
pal-erbium-control-toolbox/xenial 1.15.1-3 amd64 [upgradable from: 1.15.1-0]
pal-erbium-controller-interface/xenial 0.2.7-2 amd64 [upgradable from: 0.2.6-0]
pal-erbium-controller-manager/xenial 0.2.7-2 amd64 [upgradable from: 0.2.6-0]
pal-erbium-controller-manager-msgs/xenial 0.2.7-2 amd64 [upgradable from: 0.2.6-0]
pal-erbium-corridor-exploration-msgs/xenial 1.0.1-3 amd64 [upgradable from: 1.0.1-0]
pal-erbium-costmap-2d/xenial 1.13.1-3 amd64 [upgradable from: 1.13.1-0]
pal-erbium-cppad/xenial 0.1.1-0 amd64 [upgradable from: 0.1.0-0]
pal-erbium-current-limit-controller/xenial 1.0.2-3 amd64 [upgradable from: 1.0.0-2]
pal-erbium-ddynamic-reconfigure/xenial 0.1.7-0 amd64 [upgradable from: 0.1.5-0]
pal-erbium-ddynamic-reconfigure-python/xenial 0.0.1-3 amd64 [upgradable from: 0.0.1-0]
pal-erbium-diff-drive-controller/xenial 0.3.12-2 amd64 [upgradable from: 0.3.11-0]
pal-erbium-doxygen-catkin/xenial 0.0.2-3 amd64 [upgradable from: 0.0.2-0]
pal-erbium-driver-base/xenial 1.6.9-2 amd64 [upgradable from: 1.6.8-0]
pal-erbium-dwa-local-planner/xenial 1.13.1-3 amd64 [upgradable from: 1.13.1-0]
pal-erbium-dynamic-footprint/xenial 0.0.13-3 amd64 [upgradable from: 0.0.13-0]
pal-erbium-dynamic-introspection/xenial 1.0.9-3 amd64 [upgradable from: 1.0.7-0]
pal-erbium-dynamixel-cpp/xenial 0.0.7-3 amd64 [upgradable from: 0.0.7-0]
pal-erbium-eigen-checks/xenial 0.0.7-4 amd64 [upgradable from: 0.0.7-0]
pal-erbium-fake-localization/xenial 1.13.1-3 amd64 [upgradable from: 1.13.1-0]
pal-erbium-force-torque-sensor-controller/xenial 0.3.12-2 amd64 [upgradable from: 0.3.11-0]
pal-erbium-forward-command-controller/xenial 0.3.12-2 amd64 [upgradable from: 0.3.11-0]
pal-erbium-gazebo-dev/xenial 2.6.8-2 amd64 [upgradable from: 2.6.7-0]
pal-erbium-gazebo-msgs/xenial 2.6.8-2 amd64 [upgradable from: 2.6.7-0]
pal-erbium-gazebo-plugins/xenial 2.6.8-2 amd64 [upgradable from: 2.6.7-0]
pal-erbium-gazebo-ros/xenial 2.6.8-2 amd64 [upgradable from: 2.6.7-0]
pal-erbium-gazebo-ros-control/xenial 2.6.8-2 amd64 [upgradable from: 2.6.7-0]
pal-erbium-global-planner/xenial 1.13.1-3 amd64 [upgradable from: 1.13.1-0]
pal-erbium-gmapping/xenial 1.3.6-4 amd64 [upgradable from: 1.3.6-0]
pal-erbium-gravity-compensation-controller/xenial 0.0.3-8 amd64 [upgradable from: 0.0.3-1]
pal-erbium-hardware-interface/xenial 0.2.7-2 amd64 [upgradable from: 0.2.6-0]
pal-erbium-head-action/xenial 0.0.2-3 amd64 [upgradable from: 0.0.2-0]
pal-erbium-hey5-description/xenial 1.0.2-3 amd64 [upgradable from: 1.0.2-0]
pal-erbium-hokuyo-node/xenial 1.7.9-5 amd64 [upgradable from: 1.7.9-0]
pal-erbium-imu-sensor-controller/xenial 0.3.12-2 amd64 [upgradable from: 0.3.11-0]
pal-erbium-joint-limits-interface/xenial 0.2.7-2 amd64 [upgradable from: 0.2.6-0]
pal-erbium-joint-state-controller/xenial 0.3.12-2 amd64 [upgradable from: 0.3.11-0]
pal-erbium-joint-trajectory-controller/xenial 0.3.12-2 amd64 [upgradable from: 0.3.11-0]
pal-erbium-laser-filters/xenial 1.8.6-4 amd64 [upgradable from: 1.8.6-1]
pal-erbium-legged-state-estimator/xenial 0.0.31-0 amd64 [upgradable from: 0.0.25-1]
pal-erbium-libuvc/xenial 0.0.6-3 amd64 [upgradable from: 0.0.6-0]
pal-erbium-libuvc-camera/xenial 0.0.12-3 amd64 [upgradable from: 0.0.12-0]
pal-erbium-log4cpp/xenial 2.10.0-0 amd64 [upgradable from: 2.9.1-0]
pal-erbium-map-server/xenial 1.13.1-3 amd64 [upgradable from: 1.13.1-0]
pal-erbium-math-utils/xenial 0.1.30-0 amd64 [upgradable from: 0.1.18-2]
pal-erbium-move-base/xenial 1.13.1-3 amd64 [upgradable from: 1.13.1-0]
pal-erbium-move-base-msgs/xenial 1.13.1-3 amd64 [upgradable from: 1.13.1-0]
pal-erbium-nav-core/xenial 1.13.1-3 amd64 [upgradable from: 1.13.1-0]
pal-erbium-navfn/xenial 1.13.1-3 amd64 [upgradable from: 1.13.1-0]
pal-erbium-occupancy-grid-utils/xenial 0.1.4-3 amd64 [upgradable from: 0.1.4-0]
pal-erbium-ocl/xenial 2.10.0-1 amd64 [upgradable from: 2.9.6-3]
pal-erbium-open-karto/xenial 2.0.2-2 amd64 [upgradable from: 2.0.1-0]
pal-erbium-openslam-gmapping/xenial 0.1.3-2 amd64 [upgradable from: 0.1.2-0]
pal-erbium-pal-ariles/xenial 0.4.3-2 amd64 [upgradable from: 0.4.1-0]
pal-erbium-pal-base-ros-controller/xenial 0.0.19-0 amd64 [upgradable from: 0.0.14-1]
pal-erbium-pal-catkin-environment/xenial 0.1.0-5 amd64 [upgradable from: 0.1.0-2]
pal-erbium-pal-common-msgs/xenial 0.12.12-2 amd64 [upgradable from: 0.12.7-0]
pal-erbium-pal-composite-navigation-msgs/xenial 0.0.2-3 amd64 [upgradable from: 0.0.2-0]
pal-erbium-pal-control-msgs/xenial 0.12.12-2 amd64 [upgradable from: 0.12.7-0]
pal-erbium-pal-core/xenial 2.0.9-0 amd64 [upgradable from: 2.0.7-0]
pal-erbium-pal-debian-utils/xenial 0.0.16-0 amd64 [upgradable from: 0.0.14-0]
pal-erbium-pal-deploy/xenial 1.0.11-3 amd64 [upgradable from: 1.0.11-0]
pal-erbium-pal-detection-msgs/xenial 0.12.12-2 amd64 [upgradable from: 0.12.7-0]
pal-erbium-pal-device-msgs/xenial 0.12.12-2 amd64 [upgradable from: 0.12.7-0]
pal-erbium-pal-filters/xenial 0.0.3-4 amd64 [upgradable from: 0.0.3-0]
pal-erbium-pal-gazebo-plugins/xenial 1.1.8-7 amd64 [upgradable from: 1.1.8-2]
pal-erbium-pal-gazebo-worlds/xenial 2.0.25-0 amd64 [upgradable from: 2.0.19-0]
pal-erbium-pal-geometry-tools/xenial 0.0.3-3 amd64 [upgradable from: 0.0.3-0]
pal-erbium-pal-gripper-controller-configuration-gazebo/xenial 1.0.0-9 amd64 [upgradable from: 1.0.0-4]
pal-erbium-pal-gripper-description/xenial 1.0.0-9 amd64 [upgradable from: 1.0.0-4]
pal-erbium-pal-hardware-gazebo/xenial 0.1.2-2 amd64 [upgradable from: 0.1.1-2]
pal-erbium-pal-hardware-interfaces/xenial 0.0.3-4 amd64 [upgradable from: 0.0.3-0]
pal-erbium-pal-head-manager/xenial 1.0.10-0 amd64 [upgradable from: 1.0.8-2]
pal-erbium-pal-interaction-msgs/xenial 0.12.12-2 amd64 [upgradable from: 0.12.7-0]
pal-erbium-pal-joint-trajectory-controller/xenial 0.3.10-2 amd64 [upgradable from: 0.3.9-3]
pal-erbium-pal-karto/xenial 1.1.0-4 amd64 [upgradable from: 1.0.0-1]
pal-erbium-pal-loc-measure/xenial 1.0.0-3 amd64 [upgradable from: 1.0.0-0]
pal-erbium-pal-local-joint-control/xenial 0.0.35-0 amd64 [upgradable from: 0.0.24-0]
pal-erbium-pal-local-planner/xenial 4.2.0-5 amd64 [upgradable from: 4.2.0-1]
pal-erbium-pal-map-utils/xenial 0.0.26-2 amd64 [upgradable from: 0.0.21-0]
pal-erbium-pal-metapkg-core/xenial 0.5.9-2 amd64 [upgradable from: 0.5.9-0]
pal-erbium-pal-metapkg-development/xenial 1.0.3-0 amd64 [upgradable from: 1.0.0-0]
pal-erbium-pal-metapkg-development-tiago/xenial 1.0.12-0 amd64 [upgradable from: 1.0.11-0]
pal-erbium-pal-multirobot-msgs/xenial 0.12.12-2 amd64 [upgradable from: 0.12.7-0]
pal-erbium-pal-navigation-manager/xenial 0.1.3-15 amd64 [upgradable from: 0.1.3-10]
pal-erbium-pal-navigation-msgs/xenial 0.12.12-2 amd64 [upgradable from: 0.12.7-0]
pal-erbium-pal-navigation-sm/xenial 1.0.5-1 amd64 [upgradable from: 0.3.0-4]
pal-erbium-pal-optimization-nl-core/xenial 0.0.16-0 amd64 [upgradable from: 0.0.10-13]
pal-erbium-pal-parallel-gripper-wrapper/xenial 1.0.0-9 amd64 [upgradable from: 1.0.0-4]
pal-erbium-pal-pcl/xenial 1.0.2-0 amd64 [upgradable from: 0.2.0-0]
pal-erbium-pal-pcl-points-throttle-and-filter/xenial 0.1.2-0 amd64 [upgradable from: 0.0.2-0]
pal-erbium-pal-physics-utils/xenial 0.3.6-0 amd64 [upgradable from: 0.2.7-0]
pal-erbium-pal-python/xenial 0.9.15-0 amd64 [upgradable from: 0.9.14-3]
pal-erbium-pal-ros-control/xenial 2.0.5-3 amd64 [upgradable from: 2.0.4-0]
pal-erbium-pal-ros-controllers/xenial 1.0.2-3 amd64 [upgradable from: 1.0.0-2]
pal-erbium-pal-ros-utils/xenial 0.1.31-0 amd64 [upgradable from: 0.1.20-0]
pal-erbium-pal-rosparam-utils/xenial 0.1.2-5 amd64 [upgradable from: 0.1.2-0]
pal-erbium-pal-startup-base/xenial 3.0.11-0 amd64 [upgradable from: 3.0.2-0]
pal-erbium-pal-startup-manager/xenial 0.0.28-2 amd64 [upgradable from: 0.0.26-0]
pal-erbium-pal-startup-msgs/xenial 0.0.28-2 amd64 [upgradable from: 0.0.26-0]
pal-erbium-pal-state-estimation-core/xenial 0.0.31-0 amd64 [upgradable from: 0.0.25-1]
pal-erbium-pal-statistics/xenial 1.1.1-2 amd64 [upgradable from: 1.0.2-1]
pal-erbium-pal-statistics-msgs/xenial 1.1.1-2 amd64 [upgradable from: 1.0.2-1]
pal-erbium-pal-supervisor-msgs/xenial 1.0.0-3 amd64 [upgradable from: 1.0.0-0]
pal-erbium-pal-utils/xenial 0.0.23-0 amd64 [upgradable from: 0.0.20-0]
pal-erbium-pal-visual-localization-msgs/xenial 0.12.12-2 amd64 [upgradable from: 0.12.7-0]
pal-erbium-pal-vo-server/xenial 0.2.2-2 amd64 [upgradable from: 0.2.0-2]
pal-erbium-pal-waypoint/xenial 0.3.7-0 amd64 [upgradable from: 0.3.5-1]
pal-erbium-pal-waypoint-msgs/xenial 1.0.1-3 amd64 [upgradable from: 1.0.1-0]
pal-erbium-pal-wsg-gripper-description/xenial 0.0.6-9 amd64 [upgradable from: 0.0.6-4]
pal-erbium-play-motion/xenial 0.4.6-4 amd64 [upgradable from: 0.4.6-0]
pal-erbium-play-motion-msgs/xenial 0.4.6-4 amd64 [upgradable from: 0.4.6-0]
pal-erbium-plotjuggler/xenial 1.8.5-2 amd64 [upgradable from: 1.5.5-0]
pal-erbium-pmb2-bringup/xenial 3.0.3-0 amd64 [upgradable from: 2.0.7-16]
pal-erbium-pmb2-controller-configuration/xenial 3.0.3-0 amd64 [upgradable from: 2.0.7-16]
pal-erbium-pmb2-description/xenial 3.0.3-0 amd64 [upgradable from: 2.0.7-16]
pal-erbium-position-controllers/xenial 0.3.12-2 amd64 [upgradable from: 0.3.11-0]
pal-erbium-property-bag/xenial 0.0.6-0 amd64 [upgradable from: 0.0.5-0]
pal-erbium-rbdl/xenial 0.2.8-0 amd64 [upgradable from: 0.2.6-0]
pal-erbium-repositories-core/xenial 1.0.9-2 amd64 [upgradable from: 1.0.6-0]
pal-erbium-repositories-tiago/xenial 1.0.9-2 amd64 [upgradable from: 1.0.6-0]
pal-erbium-robot-pose/xenial 1.0.2-4 amd64 [upgradable from: 1.0.1-1]
pal-erbium-ros-type-introspection/xenial 1.0.3-3 amd64 [upgradable from: 1.0.3-0]
pal-erbium-rotate-recovery/xenial 1.13.1-3 amd64 [upgradable from: 1.13.1-0]
pal-erbium-rqt-current-limit-controller/xenial 1.0.2-3 amd64 [upgradable from: 1.0.0-2]
pal-erbium-rqt-joint-trajectory-controller/xenial 0.3.12-2 amd64 [upgradable from: 0.3.11-0]
pal-erbium-rtt/xenial 2.10.0-1 amd64 [upgradable from: 2.9.5-1]
pal-erbium-rtt-ros/xenial 2.10.0-1 amd64 [upgradable from: 2.8.8-3]
pal-erbium-rtt-roscomm/xenial 2.10.0-1 amd64 [upgradable from: 2.8.8-3]
pal-erbium-rtt-rosnode/xenial 2.10.0-1 amd64 [upgradable from: 2.8.8-3]
pal-erbium-rtt-rospack/xenial 2.10.0-1 amd64 [upgradable from: 2.8.8-3]
pal-erbium-rtt-std-msgs/xenial 2.10.0-1 amd64 [upgradable from: 2.8.8-3]
pal-erbium-rviz-plugin-covariance/xenial 0.0.7-2 amd64 [upgradable from: 0.0.6-0]
pal-erbium-sba/xenial 1.0.4-2 amd64 [upgradable from: 1.0.3-0]
pal-erbium-sensor-to-cloud/xenial 0.0.2-8 amd64 [upgradable from: 0.0.2-3]
pal-erbium-sick-tim/xenial 0.0.13-2 amd64 [upgradable from: 0.0.12-0]
pal-erbium-simple-grasping-action/xenial 1.0.1-0 amd64 [upgradable from: 1.0.0-2]
pal-erbium-sophus/xenial 3.3.2-0 amd64 [upgradable from: 3.3.1-0]
pal-erbium-speed-limit/xenial 0.1.3-7 amd64 [upgradable from: 0.1.3-2]
pal-erbium-supervisor-utils/xenial 0.9.21-3 amd64 [upgradable from: 0.9.21-0]
pal-erbium-system-pal-ca-certificate/xenial 1.0.0-3 amd64 [upgradable from: 1.0.0-0]
pal-erbium-system-ros-key/xenial 1.0.0-3 amd64 [upgradable from: 1.0.0-0]
pal-erbium-tf-lookup/xenial 0.1.3-3 amd64 [upgradable from: 0.1.3-0]
pal-erbium-tiago-2dnav/xenial 1.0.7-0 amd64 [upgradable from: 0.12.10-1]
pal-erbium-tiago-2dnav-gazebo/xenial 2.0.6-0 amd64 [upgradable from: 1.0.8-3]
pal-erbium-tiago-bringup/xenial 2.0.13-0 amd64 [upgradable from: 1.0.19-1]
pal-erbium-tiago-controller-configuration/xenial 2.0.13-0 amd64 [upgradable from: 1.0.19-1]
pal-erbium-tiago-controller-configuration-gazebo/xenial 2.0.6-0 amd64 [upgradable from: 1.0.8-3]
pal-erbium-tiago-description/xenial 2.0.13-0 amd64 [upgradable from: 1.0.19-1]
pal-erbium-tiago-description-calibration/xenial 0.0.6-0 amd64 [upgradable from: 0.0.4-0]
pal-erbium-tiago-gazebo/xenial 2.0.6-0 amd64 [upgradable from: 1.0.8-3]
pal-erbium-tiago-laser-sensors/xenial 1.0.7-0 amd64 [upgradable from: 0.12.10-1]
pal-erbium-tiago-maps/xenial 1.0.7-0 amd64 [upgradable from: 0.12.10-1]
pal-erbium-tiago-moveit-config/xenial 1.0.1-2 amd64 [upgradable from: 0.0.22-0]
pal-erbium-tiago-robot/xenial 2.0.13-0 amd64 [upgradable from: 1.0.19-1]
pal-erbium-tiago-simulation/xenial 2.0.6-0 amd64 [upgradable from: 1.0.8-3]
pal-erbium-transmission-interface/xenial 0.2.7-2 amd64 [upgradable from: 0.2.6-0]
pal-erbium-uquadprog/xenial 1.1.12-0 amd64 [upgradable from: 1.1.11-0]
pal-erbium-voxel-grid/xenial 1.13.1-3 amd64 [upgradable from: 1.13.1-0]
patch/xenial-security,xenial-updates 2.7.5-1ubuntu0.16.04.1 amd64 [upgradable from: 2.7.5-1]
perl/xenial-security,xenial-updates 5.22.1-9ubuntu0.6 amd64 [upgradable from: 5.22.1-9ubuntu0.2]
perl-base/xenial-security,xenial-updates 5.22.1-9ubuntu0.6 amd64 [upgradable from: 5.22.1-9ubuntu0.2]
perl-modules-5.22/xenial-security,xenial-updates 5.22.1-9ubuntu0.6 all [upgradable from: 5.22.1-9ubuntu0.2]
python/xenial-updates 2.7.12-1~16.04 amd64 [upgradable from: 2.7.11-1]
python-crypto/xenial-security,xenial-updates 2.6.1-6ubuntu0.16.04.3 amd64 [upgradable from: 2.6.1-6ubuntu0.16.04.2]
python-cryptography/xenial-security,xenial-updates 1.2.3-1ubuntu0.2 amd64 [upgradable from: 1.2.3-1ubuntu0.1]
python-dev/xenial-updates 2.7.12-1~16.04 amd64 [upgradable from: 2.7.11-1]
python-lxml/xenial-security,xenial-updates 3.5.0-1ubuntu0.1 amd64 [upgradable from: 3.5.0-1build1]
python-minimal/xenial-updates 2.7.12-1~16.04 amd64 [upgradable from: 2.7.11-1]
python-msgpack/xenial 0.6.1-1 amd64 [upgradable from: 0.4.6-1build1]
python-openssl/xenial-security,xenial-updates 0.15.1-2ubuntu0.2 all [upgradable from: 0.15.1-2build1]
python-osrf-pycommon/xenial 0.1.6-1 all [upgradable from: 0.1.4-1]
python-paramiko/xenial-security,xenial-updates 1.16.0-1ubuntu0.2 all [upgradable from: 1.16.0-1]
python-rosdep/xenial 0.13.0-1 all [upgradable from: 0.11.8-1]
python-rosdistro/xenial 0.7.0-100 all [upgradable from: 0.6.6-100]
python-rosdistro-modules/xenial 0.7.0-1 all [upgradable from: 0.6.6-1]
python-rospkg/xenial 1.1.7-100 all [upgradable from: 1.1.4-100]
python-rospkg-modules/xenial 1.1.7-1 all [upgradable from: 1.1.4-1]
python-tk/xenial-updates 2.7.12-1~16.04 amd64 [upgradable from: 2.7.11-2]
python-twisted/xenial-security,xenial-updates 16.0.0-1ubuntu0.2 all [upgradable from: 16.0.0-1]
python-twisted-bin/xenial-security,xenial-updates 16.0.0-1ubuntu0.2 amd64 [upgradable from: 16.0.0-1]
python-twisted-core/xenial-security,xenial-updates 16.0.0-1ubuntu0.2 all [upgradable from: 16.0.0-1]
python2.7/xenial-security,xenial-updates 2.7.12-1ubuntu0~16.04.4 amd64 [upgradable from: 2.7.12-1ubuntu0~16.04.3]
python2.7-dev/xenial-security,xenial-updates 2.7.12-1ubuntu0~16.04.4 amd64 [upgradable from: 2.7.12-1ubuntu0~16.04.3]
python2.7-minimal/xenial-security,xenial-updates 2.7.12-1ubuntu0~16.04.4 amd64 [upgradable from: 2.7.12-1ubuntu0~16.04.3]
python3.5/xenial-security,xenial-updates 3.5.2-2ubuntu0~16.04.5 amd64 [upgradable from: 3.5.2-2ubuntu0~16.04.4]
python3.5-minimal/xenial-security,xenial-updates 3.5.2-2ubuntu0~16.04.5 amd64 [upgradable from: 3.5.2-2ubuntu0~16.04.4]
qttools5-dev/xenial-updates 5.5.1-3ubuntu0.1 amd64 [upgradable from: 5.5.1-3build1]
qttools5-dev-tools/xenial-updates 5.5.1-3ubuntu0.1 amd64 [upgradable from: 5.5.1-3build1]
qttools5-private-dev/xenial-updates 5.5.1-3ubuntu0.1 amd64 [upgradable from: 5.5.1-3build1]
ros-kinetic-abseil-cpp/xenial 0.2.3-0xenial-20180809-134929-0800 amd64 [upgradable from: 0.2.3-0xenial-20171115-003329-0800]
ros-kinetic-actionlib/xenial 1.11.13-0xenial-20181107-005241-0800 amd64 [upgradable from: 1.11.12-0xenial-20180125-092143-0800]
ros-kinetic-actionlib-msgs/xenial 1.12.7-0xenial-20181107-003646-0800 amd64 [upgradable from: 1.12.5-0xenial-20171104-180102-0800]
ros-kinetic-actionlib-tutorials/xenial 0.1.10-0xenial-20181107-005940-0800 amd64 [upgradable from: 0.1.10-0xenial-20180125-125416-0800]
ros-kinetic-angles/xenial 1.9.11-0xenial-20180824-102548-0800 amd64 [upgradable from: 1.9.11-0xenial-20171116-192634-0800]
ros-kinetic-bond/xenial 1.8.3-0xenial-20181005-101651-0800 amd64 [upgradable from: 1.8.1-0xenial-20171106-042138-0800]
ros-kinetic-bond-core/xenial 1.8.3-0xenial-20181005-140628-0800 amd64 [upgradable from: 1.8.1-0xenial-20171116-225241-0800]
ros-kinetic-bondcpp/xenial 1.8.3-0xenial-20181005-135036-0800 amd64 [upgradable from: 1.8.1-0xenial-20171116-194430-0800]
ros-kinetic-bondpy/xenial 1.8.3-0xenial-20181005-134911-0800 amd64 [upgradable from: 1.8.1-0xenial-20171116-224635-0800]
ros-kinetic-camera-calibration/xenial 1.12.23-0xenial-20181107-013926-0800 amd64 [upgradable from: 1.12.22-0xenial-20180115-011934-0800]
ros-kinetic-camera-calibration-parsers/xenial 1.11.13-0xenial-20181107-012232-0800 amd64 [upgradable from: 1.11.13-0xenial-20171116-194256-0800]
ros-kinetic-camera-info-manager/xenial 1.11.13-0xenial-20181107-012955-0800 amd64 [upgradable from: 1.11.13-0xenial-20171116-230425-0800]
ros-kinetic-catkin/xenial 0.7.14-1pal-flags-hack amd64 [upgradable from: 0.7.8-2pal-gmock-hack]
ros-kinetic-class-loader/xenial 0.3.9-0xenial-20180809-135528-0800 amd64 [upgradable from: 0.3.8-0xenial-20171116-185756-0800]
ros-kinetic-cmake-modules/xenial 0.4.1-0xenial-20180809-135030-0800 amd64 [upgradable from: 0.4.1-0xenial-20171104-173449-0800]
ros-kinetic-collada-parser/xenial 1.12.12-0xenial-20180824-122019-0800 amd64 [upgradable from: 1.12.10-0xenial-20171116-225640-0800]
ros-kinetic-collada-urdf/xenial 1.12.12-0xenial-20181107-055550-0800 amd64 [upgradable from: 1.12.10-0xenial-20180125-145310-0800]
ros-kinetic-common-msgs/xenial 1.12.7-0xenial-20181107-013233-0800 amd64 [upgradable from: 1.12.5-0xenial-20171104-182005-0800]
ros-kinetic-common-tutorials/xenial 0.1.10-0xenial-20181107-032853-0800 amd64 [upgradable from: 0.1.10-0xenial-20180125-131949-0800]
ros-kinetic-compressed-depth-image-transport/xenial 1.9.5-0xenial-20181107-045938-0800 amd64 [upgradable from: 1.9.5-0xenial-20180115-011655-0800]
ros-kinetic-compressed-image-transport/xenial 1.9.5-0xenial-20181107-045943-0800 amd64 [upgradable from: 1.9.5-0xenial-20180115-011703-0800]
ros-kinetic-control-msgs/xenial 1.4.0-0xenial-20181107-005048-0800 amd64 [upgradable from: 1.4.0-0xenial-20171104-181317-0800]
ros-kinetic-cpp-common/xenial 0.6.11-0xenial-20180824-081824-0800 amd64 [upgradable from: 0.6.7-0xenial-20171104-172604-0800]
ros-kinetic-cv-bridge/xenial 1.12.8-0xenial-20181107-012239-0800 amd64 [upgradable from: 1.12.7-0xenial-20180115-000256-0800]
ros-kinetic-depth-image-proc/xenial 1.12.23-0xenial-20181116-183734-0800 amd64 [upgradable from: 1.12.22-0xenial-20180125-133004-0800]
ros-kinetic-desktop/xenial 1.3.2-0xenial-20181117-041809-0800 amd64 [upgradable from: 1.3.1-0xenial-20180125-165441-0800]
ros-kinetic-desktop-full/xenial 1.3.2-0xenial-20181117-042223-0800 amd64 [upgradable from: 1.3.1-0xenial-20180125-165614-0800]
ros-kinetic-diagnostic-aggregator/xenial 1.9.3-0xenial-20181107-004716-0800 amd64 [upgradable from: 1.9.2-0xenial-20171116-225037-0800]
ros-kinetic-diagnostic-analysis/xenial 1.9.3-0xenial-20181107-004922-0800 amd64 [upgradable from: 1.9.2-0xenial-20171117-020503-0800]
ros-kinetic-diagnostic-common-diagnostics/xenial 1.9.3-0xenial-20181117-014439-0800 amd64 [upgradable from: 1.9.2-0xenial-20180125-145342-0800]
ros-kinetic-diagnostic-msgs/xenial 1.12.7-0xenial-20181107-003618-0800 amd64 [upgradable from: 1.12.5-0xenial-20171104-180007-0800]
ros-kinetic-diagnostic-updater/xenial 1.9.3-0xenial-20181107-004720-0800 amd64 [upgradable from: 1.9.2-0xenial-20171116-225034-0800]
ros-kinetic-diagnostics/xenial 1.9.3-0xenial-20181117-033422-0800 amd64 [upgradable from: 1.9.2-0xenial-20180125-161314-0800]
ros-kinetic-dynamic-reconfigure/xenial 1.5.50-0xenial-20181005-102118-0800 amd64 [upgradable from: 1.5.48-0xenial-20171117-050328-0800]
ros-kinetic-eigen-conversions/xenial 1.11.9-0xenial-20181107-010715-0800 amd64 [upgradable from: 1.11.9-0xenial-20171104-180817-0800]
ros-kinetic-eigen-stl-containers/xenial 0.1.8-0xenial-20180809-135450-0800 amd64 [upgradable from: 0.1.8-0xenial-20171104-173958-0800]
ros-kinetic-executive-smach/xenial 2.0.1-0xenial-20181107-032917-0800 amd64 [upgradable from: 2.0.1-0xenial-20180125-132537-0800]
ros-kinetic-filters/xenial 1.7.5-0xenial-20180824-104446-0800 amd64 [upgradable from: 1.7.5-0xenial-20171116-225045-0800]
ros-kinetic-gazebo-dev/xenial 2.5.17-0xenial-20180809-135333-0800 amd64 [upgradable from: 2.5.14-1xenial-20171221-162829-0800]
ros-kinetic-gazebo-msgs/xenial 2.5.17-0xenial-20181107-010724-0800 amd64 [upgradable from: 2.5.14-1xenial-20171221-162913-0800]
ros-kinetic-gazebo-plugins/xenial 2.5.17-0xenial-20181116-193323-0800 amd64 [upgradable from: 2.5.14-1xenial-20180125-134458-0800]
ros-kinetic-gazebo-ros/xenial 2.5.17-0xenial-20181117-010737-0800 amd64 [upgradable from: 2.5.14-1xenial-20180125-144821-0800]
ros-kinetic-gazebo-ros-pkgs/xenial 2.5.17-0xenial-20181117-022712-0800 amd64 [upgradable from: 2.5.14-1xenial-20180125-153637-0800]
ros-kinetic-gencpp/xenial 0.6.0-0xenial-20180824-081412-0800 amd64 [upgradable from: 0.5.5-0xenial-20171104-174431-0800]
ros-kinetic-geneus/xenial 2.2.6-0xenial-20180824-081429-0800 amd64 [upgradable from: 2.2.6-0xenial-20171104-174431-0800]
ros-kinetic-genlisp/xenial 0.4.16-0xenial-20180824-081624-0800 amd64 [upgradable from: 0.4.16-0xenial-20171104-174454-0800]
ros-kinetic-genmsg/xenial 0.5.11-0xenial-20180824-080325-0800 amd64 [upgradable from: 0.5.9-0xenial-20171104-174042-0800]
ros-kinetic-gennodejs/xenial 2.0.1-0xenial-20180824-081715-0800 amd64 [upgradable from: 2.0.1-0xenial-20171104-174505-0800]
ros-kinetic-genpy/xenial 0.6.7-0xenial-20180824-081724-0800 amd64 [upgradable from: 0.6.7-0xenial-20171104-174557-0800]
ros-kinetic-geometric-shapes/xenial 0.5.4-1xenial-20181107-022614-0800 amd64 [upgradable from: 0.5.3-1xenial-20171130-112938-0800]
ros-kinetic-geometry/xenial 1.11.9-0xenial-20181117-014750-0800 amd64 [upgradable from: 1.11.9-0xenial-20180125-152418-0800]
ros-kinetic-geometry-msgs/xenial 1.12.7-0xenial-20181107-003741-0800 amd64 [upgradable from: 1.12.5-0xenial-20171104-180342-0800]
ros-kinetic-geometry-tutorials/xenial 0.2.2-0xenial-20181117-021455-0800 amd64 [upgradable from: 0.2.2-0xenial-20180125-152405-0800]
ros-kinetic-gl-dependency/xenial 1.1.0-0xenial-20180809-135332-0800 amd64 [upgradable from: 1.1.0-0xenial-20171104-173802-0800]
ros-kinetic-graph-msgs/xenial 0.1.0-0xenial-20181107-010754-0800 amd64 [upgradable from: 0.1.0-0xenial-20171104-180842-0800]
ros-kinetic-image-common/xenial 1.11.13-0xenial-20181107-045854-0800 amd64 [upgradable from: 1.11.13-0xenial-20171117-045735-0800]
ros-kinetic-image-geometry/xenial 1.12.8-0xenial-20181107-012402-0800 amd64 [upgradable from: 1.12.7-0xenial-20180115-000456-0800]
ros-kinetic-image-pipeline/xenial 1.12.23-0xenial-20181116-200458-0800 amd64 [upgradable from: 1.12.22-0xenial-20180125-144629-0800]
ros-kinetic-image-proc/xenial 1.12.23-0xenial-20181107-013524-0800 amd64 [upgradable from: 1.12.22-0xenial-20180115-011537-0800]
ros-kinetic-image-publisher/xenial 1.12.23-0xenial-20181107-013735-0800 amd64 [upgradable from: 1.12.22-0xenial-20180115-011609-0800]
ros-kinetic-image-rotate/xenial 1.12.23-0xenial-20181116-184411-0800 amd64 [upgradable from: 1.12.22-0xenial-20180125-133551-0800]
ros-kinetic-image-transport/xenial 1.11.13-0xenial-20181107-012412-0800 amd64 [upgradable from: 1.11.13-0xenial-20171116-225612-0800]
ros-kinetic-image-transport-plugins/xenial 1.9.5-0xenial-20181107-071358-0800 amd64 [upgradable from: 1.9.5-0xenial-20180115-020315-0800]
ros-kinetic-image-view/xenial 1.12.23-0xenial-20181107-013738-0800 amd64 [upgradable from: 1.12.22-0xenial-20180115-011331-0800]
ros-kinetic-interactive-marker-tutorials/xenial 0.10.3-0xenial-20181117-015746-0800 amd64 [upgradable from: 0.10.2-0xenial-20180125-150745-0800]
ros-kinetic-interactive-markers/xenial 1.11.4-0xenial-20181117-015057-0800 amd64 [upgradable from: 1.11.3-0xenial-20180125-145708-0800]
ros-kinetic-joint-state-publisher/xenial 1.12.13-0xenial-20181107-012438-0800 amd64 [upgradable from: 1.12.12-0xenial-20171116-225312-0800]
ros-kinetic-joy/xenial 1.12.0-0xenial-20181107-011933-0800 amd64 [upgradable from: 1.11.0-0xenial-20171116-230846-0800]
ros-kinetic-joy-teleop/xenial 0.2.6-0xenial-20181107-011643-0800 amd64 [upgradable from: 0.2.5-0xenial-20180125-125855-0800]
ros-kinetic-kdl-conversions/xenial 1.11.9-0xenial-20181107-010835-0800 amd64 [upgradable from: 1.11.9-0xenial-20171104-180526-0800]
ros-kinetic-kdl-parser/xenial 1.12.11-0xenial-20180824-121940-0800 amd64 [upgradable from: 1.12.10-0xenial-20171116-225636-0800]
ros-kinetic-key-teleop/xenial 0.2.6-0xenial-20181107-010840-0800 amd64 [upgradable from: 0.2.5-0xenial-20171116-225846-0800]
ros-kinetic-laser-assembler/xenial 1.7.4-0xenial-20181117-020107-0800 amd64 [upgradable from: 1.7.4-0xenial-20180125-150753-0800]
ros-kinetic-laser-filters/xenial 1.8.5-0xenial-20181117-020108-0800 amd64 [upgradable from: 1.8.5-0xenial-20180125-150800-0800]
ros-kinetic-laser-geometry/xenial 1.6.4-0xenial-20181117-015123-0800 amd64 [upgradable from: 1.6.4-0xenial-20180125-145845-0800]
ros-kinetic-laser-pipeline/xenial 1.6.2-0xenial-20181117-033755-0800 amd64 [upgradable from: 1.6.2-0xenial-20180125-162651-0800]
ros-kinetic-librviz-tutorial/xenial 0.10.3-0xenial-20181117-035743-0800 amd64 [upgradable from: 0.10.2-0xenial-20180125-163915-0800]
ros-kinetic-map-msgs/xenial 1.13.0-0xenial-20181107-011735-0800 amd64 [upgradable from: 1.13.0-0xenial-20171104-181341-0800]
ros-kinetic-media-export/xenial 0.2.0-0xenial-20180809-134919-0800 amd64 [upgradable from: 0.2.0-0xenial-20171104-174133-0800]
ros-kinetic-message-filters/xenial 1.12.14-1xenial-pal amd64 [upgradable from: 1.12.12-0xenial-20171116-225101-0800]
ros-kinetic-message-generation/xenial 0.4.0-0xenial-20180824-081816-0800 amd64 [upgradable from: 0.4.0-0xenial-20171104-175203-0800]
ros-kinetic-message-runtime/xenial 0.4.12-0xenial-20180824-083918-0800 amd64 [upgradable from: 0.4.12-0xenial-20171104-175214-0800]
ros-kinetic-mk/xenial 1.14.4-0xenial-20180824-085325-0800 amd64 [upgradable from: 1.13.6-0xenial-20171104-182249-0800]
ros-kinetic-moveit-core/xenial 0.9.15-0xenial-20181117-031359-0800 amd64 [upgradable from: 0.9.11-0xenial-20180125-163343-0800]
ros-kinetic-moveit-kinematics/xenial 0.9.15-0xenial-20181117-043145-0800 amd64 [upgradable from: 0.9.11-0xenial-20180125-171634-0800]
ros-kinetic-moveit-msgs/xenial 0.9.1-0xenial-20181107-011415-0800 amd64 [upgradable from: 0.9.1-0xenial-20171104-181740-0800]
ros-kinetic-moveit-planners-ompl/xenial 0.9.15-0xenial-20181117-043050-0800 amd64 [upgradable from: 0.9.11-0xenial-20180125-171655-0800]
ros-kinetic-moveit-ros-manipulation/xenial 0.9.15-0xenial-20181117-045145-0800 amd64 [upgradable from: 0.9.11-0xenial-20180125-173936-0800]
ros-kinetic-moveit-ros-move-group/xenial 0.9.15-0xenial-20181117-044041-0800 amd64 [upgradable from: 0.9.11-0xenial-20180125-172557-0800]
ros-kinetic-moveit-ros-perception/xenial 0.9.15-0xenial-20181117-033033-0800 amd64 [upgradable from: 0.9.11-0xenial-20180125-164753-0800]
ros-kinetic-moveit-ros-planning/xenial 0.9.15-0xenial-20181117-041852-0800 amd64 [upgradable from: 0.9.11-0xenial-20180125-165925-0800]
ros-kinetic-moveit-ros-planning-interface/xenial 0.9.15-0xenial-20181207-192657-0800 amd64 [upgradable from: 0.9.11-0xenial-20180125-175010-0800]
ros-kinetic-moveit-ros-robot-interaction/xenial 0.9.15-0xenial-20181117-043055-0800 amd64 [upgradable from: 0.9.11-0xenial-20180125-171713-0800]
ros-kinetic-moveit-ros-visualization/xenial 0.9.15-0xenial-20181207-193530-0800 amd64 [upgradable from: 0.9.11-0xenial-20180125-180332-0800]
ros-kinetic-moveit-ros-warehouse/xenial 0.9.15-0xenial-20181207-191751-0800 amd64 [upgradable from: 0.9.11-0xenial-20180125-171732-0800]
ros-kinetic-moveit-simple-controller-manager/xenial 0.9.15-0xenial-20181117-041149-0800 amd64 [upgradable from: 0.9.11-0xenial-20180125-164747-0800]
ros-kinetic-nav-msgs/xenial 1.12.7-0xenial-20181107-004540-0800 amd64 [upgradable from: 1.12.5-0xenial-20171104-180617-0800]
ros-kinetic-nodelet/xenial 1.9.14-0xenial-20181005-170113-0800 amd64 [upgradable from: 1.9.14-0xenial-20171116-210953-0800]
ros-kinetic-nodelet-core/xenial 1.9.14-0xenial-20181005-214351-0800 amd64 [upgradable from: 1.9.14-0xenial-20171117-063916-0800]
ros-kinetic-nodelet-topic-tools/xenial 1.9.14-0xenial-20181005-172253-0800 amd64 [upgradable from: 1.9.14-0xenial-20171117-052227-0800]
ros-kinetic-nodelet-tutorial-math/xenial 0.1.10-0xenial-20181005-214520-0800 amd64 [upgradable from: 0.1.10-0xenial-20171116-211414-0800]
ros-kinetic-object-recognition-msgs/xenial 0.4.1-0xenial-20181107-005322-0800 amd64 [upgradable from: 0.4.1-0xenial-20171104-181348-0800]
ros-kinetic-octomap/xenial 1.8.1-0xenial-20180809-134711-0800 amd64 [upgradable from: 1.8.1-0xenial-20171104-172906-0800]
ros-kinetic-octomap-msgs/xenial 0.3.3-0xenial-20181107-010952-0800 amd64 [upgradable from: 0.3.3-0xenial-20171104-181039-0800]
ros-kinetic-octomap-ros/xenial 0.4.0-0xenial-20181117-015315-0800 amd64 [upgradable from: 0.4.0-0xenial-20180125-150928-0800]
ros-kinetic-octomap-server/xenial 0.6.1-0xenial-20181117-021935-0800 amd64 [upgradable from: 0.6.1-0xenial-20180125-163110-0800]
ros-kinetic-ompl/xenial 1.2.3-1xenial-20180523-181022-0800 amd64 [upgradable from: 1.2.1-1xenial-20161119-235543-0800]
ros-kinetic-opencv3/xenial,xenial 3.3.1-5xenial-20180809-134307-0800 amd64 [upgradable from: 3.3.1-1pal-fixed]
ros-kinetic-openni2-camera/xenial 0.4.2-0xenial-20181203-124741-0800 amd64 [upgradable from: 0.3.0-0xenial-20171117-051737-0800]
ros-kinetic-openni2-launch/xenial 0.4.2-0xenial-20181203-125801-0800 amd64 [upgradable from: 0.3.0-0xenial-20180125-144646-0800]
ros-kinetic-orocos-kdl/xenial 1.3.1-0xenial-20180809-140307-0800 amd64 [upgradable from: 1.3.1-0xenial-20171104-172944-0800]
ros-kinetic-pcl-conversions/xenial 0.2.1-0xenial-20181107-013209-0800 amd64 [upgradable from: 0.2.1-0xenial-20171116-210135-0800]
ros-kinetic-pcl-msgs/xenial 0.2.0-0xenial-20181107-012646-0800 amd64 [upgradable from: 0.2.0-0xenial-20171104-181550-0800]
ros-kinetic-pcl-ros/xenial 1.4.4-0xenial-20181116-191814-0800 amd64 [upgradable from: 1.4.1-0xenial-20180125-151028-0800]
ros-kinetic-perception/xenial 1.3.2-0xenial-20181117-033851-0800 amd64 [upgradable from: 1.3.1-0xenial-20180125-164049-0800]
ros-kinetic-perception-pcl/xenial 1.4.4-0xenial-20181117-021939-0800 amd64 [upgradable from: 1.4.1-0xenial-20180125-163815-0800]
ros-kinetic-pluginlib/xenial 1.11.3-0xenial-20180824-102355-0800 amd64 [upgradable from: 1.11.2-0xenial-20171116-192517-0800]
ros-kinetic-pluginlib-tutorials/xenial 0.1.10-0xenial-20180824-113240-0800 amd64 [upgradable from: 0.1.10-0xenial-20171116-194325-0800]
ros-kinetic-pointcloud-to-laserscan/xenial 1.3.1-0xenial-20181116-184018-0800 amd64 [upgradable from: 1.3.1-0xenial-20180125-133730-0800]
ros-kinetic-polled-camera/xenial 1.11.13-0xenial-20181107-013014-0800 amd64 [upgradable from: 1.11.13-0xenial-20171117-044721-0800]
ros-kinetic-python-orocos-kdl/xenial 1.3.1-0xenial-20180809-140945-0800 amd64 [upgradable from: 1.3.1-0xenial-20171104-173625-0800]
ros-kinetic-python-qt-binding/xenial 0.3.4-0xenial-20180824-102741-0800 amd64 [upgradable from: 0.3.3-0xenial-20171104-175930-0800]
ros-kinetic-qt-dotgraph/xenial 0.3.11-0xenial-20180830-074321-0800 amd64 [upgradable from: 0.3.8-0xenial-20171104-180401-0800]
ros-kinetic-qt-gui/xenial 0.3.11-0xenial-20180830-074343-0800 amd64 [upgradable from: 0.3.8-0xenial-20171104-181852-0800]
ros-kinetic-qt-gui-cpp/xenial 0.3.11-0xenial-20180830-075013-0800 amd64 [upgradable from: 0.3.8-0xenial-20171116-192923-0800]
ros-kinetic-qt-gui-py-common/xenial 0.3.11-0xenial-20180830-074357-0800 amd64 [upgradable from: 0.3.8-0xenial-20171104-181856-0800]
ros-kinetic-qwt-dependency/xenial 1.1.0-0xenial-20180809-134545-0800 amd64 [upgradable from: 1.1.0-0xenial-20171104-174931-0800]
ros-kinetic-random-numbers/xenial 0.3.1-0xenial-20180809-140636-0800 amd64 [upgradable from: 0.3.1-0xenial-20171104-173111-0800]
ros-kinetic-realtime-tools/xenial 1.11.0-0xenial-20180824-115934-0800 amd64 [upgradable from: 1.11.0-0xenial-20171116-210931-0800]
ros-kinetic-resource-retriever/xenial 1.12.4-0xenial-20180824-102007-0800 amd64 [upgradable from: 1.12.3-0xenial-20171116-192600-0800]
ros-kinetic-rgbd-launch/xenial 2.2.2-0xenial-20181116-185636-0800 amd64 [upgradable from: 2.2.2-0xenial-20180125-133843-0800]
ros-kinetic-robot/xenial 1.3.2-0xenial-20181117-033504-0800 amd64 [upgradable from: 1.3.1-0xenial-20180125-161743-0800]
ros-kinetic-robot-model/xenial 1.12.11-0xenial-20181107-055848-0800 amd64 [upgradable from: 1.12.11-0xenial-20180125-161534-0800]
ros-kinetic-robot-state-publisher/xenial 1.13.6-0xenial-20181116-193958-0800 amd64 [upgradable from: 1.13.4-0xenial-20180125-134533-0800]
ros-kinetic-ros/xenial 1.14.4-0xenial-20180824-085446-0800 amd64 [upgradable from: 1.13.6-0xenial-20171116-191739-0800]
ros-kinetic-ros-base/xenial 1.3.2-0xenial-20181107-052337-0800 amd64 [upgradable from: 1.3.1-0xenial-20180125-130440-0800]
ros-kinetic-ros-comm/xenial 1.12.14-0xenial-20180824-125632-0800 amd64 [upgradable from: 1.12.12-0xenial-20171117-050801-0800]
ros-kinetic-ros-core/xenial 1.3.2-0xenial-20181107-052237-0800 amd64 [upgradable from: 1.3.1-0xenial-20171117-082647-0800]
ros-kinetic-ros-tutorials/xenial 0.7.1-0xenial-20181107-045510-0800 amd64 [upgradable from: 0.7.1-0xenial-20171116-230734-0800]
ros-kinetic-rosbag/xenial 1.12.14-0xenial-20180824-103606-0800 amd64 [upgradable from: 1.12.12-0xenial-20171116-225733-0800]
ros-kinetic-rosbag-migration-rule/xenial 1.0.0-0xenial-20180809-134558-0800 amd64 [upgradable from: 1.0.0-0xenial-20171104-172854-0800]
ros-kinetic-rosbag-storage/xenial 1.12.14-0xenial-20180824-085858-0800 amd64 [upgradable from: 1.12.12-0xenial-20171116-192535-0800]
ros-kinetic-rosbash/xenial 1.14.4-0xenial-20180824-082251-0800 amd64 [upgradable from: 1.13.6-0xenial-20171104-173320-0800]
ros-kinetic-rosboost-cfg/xenial 1.14.4-0xenial-20180824-082342-0800 amd64 [upgradable from: 1.13.6-0xenial-20171104-173148-0800]
ros-kinetic-rosbuild/xenial 1.14.4-0xenial-20180824-084011-0800 amd64 [upgradable from: 1.13.6-0xenial-20171104-175708-0800]
ros-kinetic-rosclean/xenial 1.14.4-0xenial-20180824-082408-0800 amd64 [upgradable from: 1.13.6-0xenial-20171104-173757-0800]
ros-kinetic-rosconsole/xenial 1.12.14-0xenial-20180824-085351-0800 amd64 [upgradable from: 1.12.12-0xenial-20171116-191709-0800]
ros-kinetic-rosconsole-bridge/xenial 0.5.2-0xenial-20180824-112716-0800 amd64 [upgradable from: 0.5.1-0xenial-20171116-192854-0800]
ros-kinetic-roscpp/xenial 1.12.14-0xenial-20180824-091453-0800 amd64 [upgradable from: 1.12.12-0xenial-20171116-193322-0800]
ros-kinetic-roscpp-core/xenial 0.6.11-0xenial-20180824-083916-0800 amd64 [upgradable from: 0.6.7-0xenial-20171104-175022-0800]
ros-kinetic-roscpp-serialization/xenial 0.6.11-0xenial-20180824-083414-0800 amd64 [upgradable from: 0.6.7-0xenial-20171104-174408-0800]
ros-kinetic-roscpp-traits/xenial 0.6.11-0xenial-20180824-083319-0800 amd64 [upgradable from: 0.6.7-0xenial-20171104-173916-0800]
ros-kinetic-roscpp-tutorials/xenial 0.7.1-0xenial-20180824-100457-0800 amd64 [upgradable from: 0.7.1-0xenial-20171116-194321-0800]
ros-kinetic-roscreate/xenial 1.14.4-0xenial-20180824-082437-0800 amd64 [upgradable from: 1.13.6-0xenial-20171104-174210-0800]
ros-kinetic-rosgraph/xenial 1.12.14-0xenial-20180824-082526-0800 amd64 [upgradable from: 1.12.12-0xenial-20171116-185949-0800]
ros-kinetic-rosgraph-msgs/xenial 1.11.2-0xenial-20180824-085730-0800 amd64 [upgradable from: 1.11.2-0xenial-20171104-181933-0800]
ros-kinetic-roslang/xenial 1.14.4-0xenial-20180824-081744-0800 amd64 [upgradable from: 1.13.6-0xenial-20171104-174440-0800]
ros-kinetic-roslaunch/xenial 1.12.14-1pal-pass-all-args-fix amd64 [upgradable from: 1.12.12-0xenial-20171116-224009-0800]
ros-kinetic-roslib/xenial 1.14.4-0xenial-20180824-082628-0800 amd64 [upgradable from: 1.13.6-0xenial-20171116-190447-0800]
ros-kinetic-roslint/xenial 0.11.0-0xenial-20180809-141229-0800 amd64 [upgradable from: 0.11.0-0xenial-20171104-175010-0800]
ros-kinetic-roslisp/xenial 1.9.21-0xenial-20180824-091500-0800 amd64 [upgradable from: 1.9.21-0xenial-20171116-190201-0800]
ros-kinetic-roslz4/xenial 1.12.14-0xenial-20180824-084411-0800 amd64 [upgradable from: 1.12.12-0xenial-20171116-191716-0800]
ros-kinetic-rosmake/xenial 1.14.4-0xenial-20180824-082802-0800 amd64 [upgradable from: 1.13.6-0xenial-20171104-174153-0800]
ros-kinetic-rosmaster/xenial 1.12.14-0xenial-20180824-082836-0800 amd64 [upgradable from: 1.12.12-0xenial-20171116-190220-0800]
ros-kinetic-rosmsg/xenial 1.12.14-0xenial-20180824-104154-0800 amd64 [upgradable from: 1.12.12-0xenial-20171117-044533-0800]
ros-kinetic-rosnode/xenial 1.12.14-0xenial-20180824-104806-0800 amd64 [upgradable from: 1.12.12-0xenial-20171117-020529-0800]
ros-kinetic-rosout/xenial 1.12.14-0xenial-20180824-093510-0800 amd64 [upgradable from: 1.12.12-0xenial-20171116-210307-0800]
ros-kinetic-rospack/xenial 2.4.4-0xenial-20180809-135522-0800 amd64 [upgradable from: 2.4.4-0xenial-20171116-185756-0800]
ros-kinetic-rosparam/xenial 1.12.14-0xenial-20180824-082853-0800 amd64 [upgradable from: 1.12.12-0xenial-20171116-190414-0800]
ros-kinetic-rospy/xenial 1.12.14-0xenial-20180824-093546-0800 amd64 [upgradable from: 1.12.12-0xenial-20171116-210432-0800]
ros-kinetic-rospy-tutorials/xenial 0.7.1-0xenial-20180824-103025-0800 amd64 [upgradable from: 0.7.1-0xenial-20171116-225802-0800]
ros-kinetic-rosservice/xenial 1.12.14-0xenial-20180824-104815-0800 amd64 [upgradable from: 1.12.12-0xenial-20171117-045434-0800]
ros-kinetic-rostest/xenial 1.12.14-1pal-logs-hack amd64 [upgradable from: 1.12.12-2pal-gmock-and-logs-hack]
ros-kinetic-rostime/xenial 0.6.11-0xenial-20180824-082916-0800 amd64 [upgradable from: 0.6.7-0xenial-20171104-173209-0800]
ros-kinetic-rostopic/xenial 1.12.14-0xenial-20180824-104149-0800 amd64 [upgradable from: 1.12.12-0xenial-20171116-231053-0800]
ros-kinetic-rosunit/xenial 1.14.4-1pal-test-tee-hack amd64 [upgradable from: 1.13.6-1pal-test-tee-hack]
ros-kinetic-roswtf/xenial 1.12.14-0xenial-20180824-105256-0800 amd64 [upgradable from: 1.12.12-0xenial-20171117-050440-0800]
ros-kinetic-rqt-action/xenial 0.4.9-0xenial-20181107-063101-0800 amd64 [upgradable from: 0.4.9-0xenial-20180125-133133-0800]
ros-kinetic-rqt-bag/xenial 0.4.12-0xenial-20180830-080533-0800 amd64 [upgradable from: 0.4.11-0xenial-20171117-020946-0800]
ros-kinetic-rqt-bag-plugins/xenial 0.4.12-0xenial-20181107-062947-0800 amd64 [upgradable from: 0.4.11-0xenial-20180125-143253-0800]
ros-kinetic-rqt-common-plugins/xenial 0.4.8-0xenial-20181107-072619-0800 amd64 [upgradable from: 0.4.8-0xenial-20180125-144110-0800]
ros-kinetic-rqt-console/xenial 0.4.8-0xenial-20181107-062812-0800 amd64 [upgradable from: 0.4.8-0xenial-20180125-132443-0800]
ros-kinetic-rqt-dep/xenial 0.4.9-0xenial-20180830-080620-0800 amd64 [upgradable from: 0.4.8-0xenial-20171117-065813-0800]
ros-kinetic-rqt-graph/xenial 0.4.9-0xenial-20180830-080333-0800 amd64 [upgradable from: 0.4.9-0xenial-20171117-050411-0800]
ros-kinetic-rqt-gui/xenial 0.5.0-0xenial-20180830-075114-0800 amd64 [upgradable from: 0.5.0-0xenial-20171104-182603-0800]
ros-kinetic-rqt-gui-cpp/xenial 0.5.0-0xenial-20181005-204831-0800 amd64 [upgradable from: 0.5.0-0xenial-20171116-211427-0800]
ros-kinetic-rqt-gui-py/xenial 0.5.0-0xenial-20180830-075641-0800 amd64 [upgradable from: 0.5.0-0xenial-20171116-230001-0800]
ros-kinetic-rqt-image-view/xenial 0.4.13-0xenial-20181107-013502-0800 amd64 [upgradable from: 0.4.11-0xenial-20180115-010925-0800]
ros-kinetic-rqt-launch/xenial 0.4.8-0xenial-20181107-063004-0800 amd64 [upgradable from: 0.4.8-0xenial-20180125-132928-0800]
ros-kinetic-rqt-logger-level/xenial 0.4.8-0xenial-20180830-080519-0800 amd64 [upgradable from: 0.4.8-0xenial-20171117-050420-0800]
ros-kinetic-rqt-moveit/xenial 0.5.7-0xenial-20181107-032658-0800 amd64 [upgradable from: 0.5.7-0xenial-20180125-132457-0800]
ros-kinetic-rqt-msg/xenial 0.4.8-0xenial-20181107-063007-0800 amd64 [upgradable from: 0.4.8-0xenial-20180125-132934-0800]
ros-kinetic-rqt-nav-view/xenial 0.5.7-0xenial-20181117-010716-0800 amd64 [upgradable from: 0.5.7-0xenial-20180125-134444-0800]
ros-kinetic-rqt-plot/xenial 0.4.8-0xenial-20181107-062812-0800 amd64 [upgradable from: 0.4.8-0xenial-20180125-132503-0800]
ros-kinetic-rqt-pose-view/xenial 0.5.8-0xenial-20181117-010724-0800 amd64 [upgradable from: 0.5.8-0xenial-20180125-134452-0800]
ros-kinetic-rqt-publisher/xenial 0.4.8-0xenial-20181107-062822-0800 amd64 [upgradable from: 0.4.8-0xenial-20180125-132506-0800]
ros-kinetic-rqt-py-common/xenial 0.5.0-0xenial-20181107-032138-0800 amd64 [upgradable from: 0.5.0-0xenial-20180125-130445-0800]
ros-kinetic-rqt-py-console/xenial 0.4.8-0xenial-20180830-080254-0800 amd64 [upgradable from: 0.4.8-0xenial-20171116-231922-0800]
ros-kinetic-rqt-reconfigure/xenial,xenial 0.4.10-0xenial-20181107-063136-0800 amd64 [upgradable from: 0.4.10-0xenial-20180516-210134-0800]
ros-kinetic-rqt-robot-dashboard/xenial 0.5.7-0xenial-20181117-031112-0800 amd64 [upgradable from: 0.5.7-0xenial-20180125-143342-0800]
ros-kinetic-rqt-robot-monitor/xenial 0.5.8-1xenial-20181107-032659-0800 amd64 [upgradable from: 0.5.7-0xenial-20180125-132515-0800]
ros-kinetic-rqt-robot-plugins/xenial 0.5.7-0xenial-20181117-040930-0800 amd64 [upgradable from: 0.5.7-0xenial-20180125-164634-0800]
ros-kinetic-rqt-robot-steering/xenial 0.5.9-0xenial-20181107-011041-0800 amd64 [upgradable from: 0.5.8-0xenial-20171117-044703-0800]
ros-kinetic-rqt-runtime-monitor/xenial 0.5.7-0xenial-20181107-005249-0800 amd64 [upgradable from: 0.5.7-0xenial-20171116-231747-0800]
ros-kinetic-rqt-rviz/xenial 0.5.10-0xenial-20181117-035720-0800 amd64 [upgradable from: 0.5.7-0xenial-20180125-164012-0800]
ros-kinetic-rqt-service-caller/xenial 0.4.8-0xenial-20181107-062840-0800 amd64 [upgradable from: 0.4.8-0xenial-20180125-132521-0800]
ros-kinetic-rqt-shell/xenial 0.4.9-0xenial-20180830-080329-0800 amd64 [upgradable from: 0.4.9-0xenial-20171117-044717-0800]
ros-kinetic-rqt-srv/xenial 0.4.8-0xenial-20181107-072515-0800 amd64 [upgradable from: 0.4.8-0xenial-20180125-143920-0800]
ros-kinetic-rqt-tf-tree/xenial 0.5.8-0xenial-20181116-183444-0800 amd64 [upgradable from: 0.5.8-0xenial-20180125-133018-0800]
ros-kinetic-rqt-top/xenial 0.4.8-0xenial-20180830-080652-0800 amd64 [upgradable from: 0.4.8-0xenial-20171116-231932-0800]
ros-kinetic-rqt-topic/xenial 0.4.10-0xenial-20180830-080532-0800 amd64 [upgradable from: 0.4.10-0xenial-20171117-044710-0800]
ros-kinetic-rqt-web/xenial 0.4.8-0xenial-20180830-080351-0800 amd64 [upgradable from: 0.4.8-0xenial-20171116-231938-0800]
ros-kinetic-rviz/xenial 1.12.16-0xenial-20181117-020050-0800 amd64 [upgradable from: 1.12.15-0xenial-20180125-150749-0800]
ros-kinetic-rviz-plugin-tutorials/xenial 0.10.3-0xenial-20181117-035822-0800 amd64 [upgradable from: 0.10.2-0xenial-20180125-164143-0800]
ros-kinetic-rviz-python-tutorial/xenial 0.10.3-0xenial-20181117-035829-0800 amd64 [upgradable from: 0.10.2-0xenial-20180125-164217-0800]
ros-kinetic-self-test/xenial 1.9.3-0xenial-20181107-005205-0800 amd64 [upgradable from: 1.9.2-0xenial-20171116-225509-0800]
ros-kinetic-sensor-msgs/xenial,xenial 1.12.7-0xenial-20181107-004110-0800 amd64 [upgradable from: 1.12.5-0xenial-20171104-181113-0800]
ros-kinetic-shape-msgs/xenial 1.12.7-0xenial-20181107-004520-0800 amd64 [upgradable from: 1.12.5-0xenial-20171104-181122-0800]
ros-kinetic-simulators/xenial 1.3.2-0xenial-20181117-041352-0800 amd64 [upgradable from: 1.3.1-0xenial-20180125-164811-0800]
ros-kinetic-smach/xenial 2.0.1-0xenial-20180809-141312-0800 amd64 [upgradable from: 2.0.1-0xenial-20171104-172935-0800]
ros-kinetic-smach-msgs/xenial 2.0.1-0xenial-20180824-101119-0800 amd64 [upgradable from: 2.0.1-0xenial-20171104-181944-0800]
ros-kinetic-smach-ros/xenial 2.0.1-0xenial-20181107-010211-0800 amd64 [upgradable from: 2.0.1-0xenial-20180125-130501-0800]
ros-kinetic-smclib/xenial 1.8.3-0xenial-20181005-102223-0800 amd64 [upgradable from: 1.8.1-0xenial-20171106-042229-0800]
ros-kinetic-srdfdom/xenial 0.4.2-1xenial-20180824-125310-0800 amd64 [upgradable from: 0.4.2-1xenial-20171117-020300-0800]
ros-kinetic-stage/xenial 4.1.1-1xenial-20180809-134217-0800 amd64 [upgradable from: 4.1.1-1xenial-20171104-173346-0800]
ros-kinetic-stage-ros/xenial 1.7.5-0xenial-20181117-020454-0800 amd64 [upgradable from: 1.7.5-0xenial-20180125-151437-0800]
ros-kinetic-std-msgs/xenial 0.5.11-0xenial-20180824-085549-0800 amd64 [upgradable from: 0.5.11-0xenial-20171104-175741-0800]
ros-kinetic-std-srvs/xenial 1.11.2-0xenial-20180824-085636-0800 amd64 [upgradable from: 1.11.2-0xenial-20171104-175752-0800]
ros-kinetic-stereo-image-proc/xenial 1.12.23-0xenial-20181107-014703-0800 amd64 [upgradable from: 1.12.22-0xenial-20180115-012313-0800]
ros-kinetic-stereo-msgs/xenial 1.12.7-0xenial-20181107-012835-0800 amd64 [upgradable from: 1.12.5-0xenial-20171104-181619-0800]
ros-kinetic-teleop-tools-msgs/xenial 0.2.6-0xenial-20181107-005616-0800 amd64 [upgradable from: 0.2.5-0xenial-20171104-181727-0800]
ros-kinetic-tf/xenial 1.11.9-0xenial-20181116-185733-0800 amd64 [upgradable from: 1.11.9-0xenial-20180125-133059-0800]
ros-kinetic-tf-conversions/xenial 1.11.9-0xenial-20181117-010711-0800 amd64 [upgradable from: 1.11.9-0xenial-20180125-151549-0800]
ros-kinetic-tf2/xenial 0.5.20-0xenial-20181116-181519-0800 amd64 [upgradable from: 0.5.17-0xenial-20180105-142245-0800]
ros-kinetic-tf2-bullet/xenial 0.5.20-0xenial-20181116-181954-0800 amd64 [upgradable from: 0.5.17-0xenial-20180105-144724-0800]
ros-kinetic-tf2-eigen/xenial 0.5.20-0xenial-20181116-181942-0800 amd64 [upgradable from: 0.5.17-0xenial-20180105-144959-0800]
ros-kinetic-tf2-geometry-msgs/xenial 0.5.20-0xenial-20181116-183540-0800 amd64 [upgradable from: 0.5.17-0xenial-20180125-133024-0800]
ros-kinetic-tf2-kdl/xenial 0.5.20-0xenial-20181116-183554-0800 amd64 [upgradable from: 0.5.17-0xenial-20180125-133034-0800]
ros-kinetic-tf2-msgs/xenial 0.5.20-0xenial-20181116-180824-0800 amd64 [upgradable from: 0.5.17-0xenial-20180105-133131-0800]
ros-kinetic-tf2-py/xenial 0.5.20-0xenial-20181116-181954-0800 amd64 [upgradable from: 0.5.17-0xenial-20180105-145030-0800]
ros-kinetic-tf2-ros/xenial 0.5.20-0xenial-20181116-182627-0800 amd64 [upgradable from: 0.5.17-0xenial-20180125-130622-0800]
ros-kinetic-tf2-sensor-msgs/xenial 0.5.20-0xenial-20181116-183240-0800 amd64 [upgradable from: 0.5.17-0xenial-20180125-133045-0800]
ros-kinetic-theora-image-transport/xenial 1.9.5-0xenial-20181107-045947-0800 amd64 [upgradable from: 1.9.5-0xenial-20180115-011843-0800]
ros-kinetic-topic-tools/xenial 1.12.14-0xenial-20180824-102957-0800 amd64 [upgradable from: 1.12.12-0xenial-20171116-225154-0800]
ros-kinetic-trajectory-msgs/xenial 1.12.7-0xenial-20181107-004142-0800 amd64 [upgradable from: 1.12.5-0xenial-20171104-181137-0800]
ros-kinetic-turtle-actionlib/xenial 0.1.10-0xenial-20181107-011840-0800 amd64 [upgradable from: 0.1.10-0xenial-20180125-130651-0800]
ros-kinetic-turtle-tf/xenial 0.2.2-0xenial-20181117-020706-0800 amd64 [upgradable from: 0.2.2-0xenial-20180125-151604-0800]
ros-kinetic-turtle-tf2/xenial 0.2.2-0xenial-20181116-184121-0800 amd64 [upgradable from: 0.2.2-0xenial-20180125-133103-0800]
ros-kinetic-turtlesim/xenial 0.7.1-0xenial-20181107-011234-0800 amd64 [upgradable from: 0.7.1-0xenial-20171116-210748-0800]
ros-kinetic-twist-mux/xenial 3.0.0-0xenial-20181107-010959-0800 amd64 [upgradable from: 3.0.0-0xenial-20180125-133000-0800]
ros-kinetic-twist-mux-msgs/xenial 2.0.0-0xenial-20181107-010218-0800 amd64 [upgradable from: 2.0.0-0xenial-20180125-130700-0800]
ros-kinetic-urdf/xenial 1.12.12-0xenial-20180824-120058-0800 amd64 [upgradable from: 1.12.12-0xenial-20171116-225201-0800]
ros-kinetic-urdf-parser-plugin/xenial 1.12.12-0xenial-20180809-141354-0800 amd64 [upgradable from: 1.12.12-0xenial-20171113-102356-0800]
ros-kinetic-urdf-tutorial/xenial 0.3.0-1xenial-20181117-024432-0800 amd64 [upgradable from: 0.3.0-1xenial-20180125-154227-0800]
ros-kinetic-urdfdom-py/xenial 0.3.3-0xenial-20180809-134752-0800 amd64 [upgradable from: 0.3.3-0xenial-20171104-172316-0800]
ros-kinetic-vision-opencv/xenial 1.12.8-0xenial-20181107-052427-0800 amd64 [upgradable from: 1.12.7-0xenial-20180115-012331-0800]
ros-kinetic-visualization-marker-tutorials/xenial 0.10.3-0xenial-20181107-022638-0800 amd64 [upgradable from: 0.10.2-0xenial-20180105-010325-0800]
ros-kinetic-visualization-msgs/xenial 1.12.7-0xenial-20181107-004540-0800 amd64 [upgradable from: 1.12.5-0xenial-20171104-181203-0800]
ros-kinetic-visualization-tutorials/xenial 0.10.3-0xenial-20181117-041233-0800 amd64 [upgradable from: 0.10.2-0xenial-20180125-165323-0800]
ros-kinetic-viz/xenial 1.3.2-0xenial-20181117-041357-0800 amd64 [upgradable from: 1.3.1-0xenial-20180125-164803-0800]
ros-kinetic-warehouse-ros/xenial 0.9.2-0xenial-20181207-190813-0800 amd64 [upgradable from: 0.9.0-0xenial-20180125-151729-0800]
ros-kinetic-webkit-dependency/xenial 1.1.0-0xenial-20180809-143944-0800 amd64 [upgradable from: 1.1.0-0xenial-20171104-172845-0800]
ros-kinetic-xacro/xenial 1.11.3-0xenial-20180824-125006-0800 amd64 [upgradable from: 1.11.2-0xenial-20171117-013356-0800]
ros-kinetic-xmlrpcpp/xenial 1.12.14-0xenial-20180824-083404-0800 amd64 [upgradable from: 1.12.12-0xenial-20171116-193034-0800]
shared-mime-info/xenial-updates 1.5-2ubuntu0.2 amd64 [upgradable from: 1.5-2ubuntu0.1]
tzdata/xenial-security,xenial-updates 2018i-0ubuntu0.16.04 all [upgradable from: 2017c-0ubuntu0.16.04]
ubuntu-mono/xenial-updates 14.04+16.04.20180326-0ubuntu1 all [upgradable from: 14.04+16.04.20171116-0ubuntu1]
uuid-dev/xenial-updates 2.27.1-6ubuntu3.6 amd64 [upgradable from: 2.27.1-6ubuntu3.3]
x11-common/xenial-updates 1:7.7+13ubuntu3.1 all [upgradable from: 1:7.7+13ubuntu3]